<?xml version="1.0" encoding="UTF-8" standalone="no"?>
<!-- Created with Inkscape (http://www.inkscape.org/) -->

<svg
   width="869.03375mm"
   height="649.15631mm"
   viewBox="0 0 869.03375 649.15631"
   version="1.1"
   id="svg5"
   inkscape:version="1.1 (c4e8f9ed74, 2021-05-24)"
   sodipodi:docname="Evol_A01.svg"
   xmlns:inkscape="http://www.inkscape.org/namespaces/inkscape"
   xmlns:sodipodi="http://sodipodi.sourceforge.net/DTD/sodipodi-0.dtd"
   xmlns="http://www.w3.org/2000/svg"
   xmlns:svg="http://www.w3.org/2000/svg">
  <sodipodi:namedview
     id="namedview7"
     pagecolor="#ffffff"
     bordercolor="#666666"
     borderopacity="1.0"
     inkscape:pageshadow="2"
     inkscape:pageopacity="1"
     inkscape:pagecheckerboard="0"
     inkscape:document-units="mm"
     showgrid="false"
     inkscape:zoom="0.13127703"
     inkscape:cx="3043.1827"
     inkscape:cy="1287.3539"
     inkscape:window-width="1366"
     inkscape:window-height="699"
     inkscape:window-x="0"
     inkscape:window-y="32"
     inkscape:window-maximized="1"
     inkscape:current-layer="layer1"
     inkscape:snap-global="false" />
  <defs
     id="defs2" />
  <g
     inkscape:label="Layer 1"
     inkscape:groupmode="layer"
     id="layer1"
     transform="translate(0.55170248,6.174337)">
    <text
       xml:space="preserve"
       style="font-style:normal;font-weight:normal;font-size:4.23333px;line-height:1.25;font-family:sans-serif;fill:#000000;fill-opacity:1;stroke:none;stroke-width:0.264583"
       x="5.7268929"
       y="-3.0755396"
       id="text8415"><tspan
         sodipodi:role="line"
         id="tspan8413"
         style="font-size:4.23333px;stroke-width:0.264583"
         x="5.7268929"
         y="-3.0755396">ag.exe &gt; grafico.txt</tspan></text>
    <text
       xml:space="preserve"
       style="font-style:normal;font-weight:normal;font-size:10.5833px;line-height:1.25;font-family:sans-serif;fill:#000000;fill-opacity:1;stroke:none;stroke-width:0.264583"
       x="34.142193"
       y="11.734456"
       id="text54875"><tspan
         sodipodi:role="line"
         id="tspan54873"
         style="stroke-width:0.264583"
         x="34.142193"
         y="11.734456">1- Inicializar uma Popuacao</tspan><tspan
         sodipodi:role="line"
         style="stroke-width:0.264583"
         x="34.142193"
         y="24.963581"
         id="tspan57307">10 ind -&gt; Cromossomo (conj. Parametros -&gt; Vetor)</tspan><tspan
         sodipodi:role="line"
         style="stroke-width:0.264583"
         x="34.142193"
         y="38.192703"
         id="tspan87471">Cafe' =&gt; (Agua, Cafe, Acucar, leite)</tspan><tspan
         sodipodi:role="line"
         style="stroke-width:0.264583"
         x="34.142193"
         y="51.421829"
         id="tspan90185">i0 = (10, 3, 5, 10)</tspan><tspan
         sodipodi:role="line"
         style="stroke-width:0.264583"
         x="34.142193"
         y="64.650955"
         id="tspan91429">...</tspan><tspan
         sodipodi:role="line"
         style="stroke-width:0.264583"
         x="34.142193"
         y="77.880081"
         id="tspan91431">i9 = (8, 2, 6, 88)     2^4 = 16 possibilidades </tspan><tspan
         sodipodi:role="line"
         style="stroke-width:0.264583"
         x="34.142193"
         y="91.109207"
         id="tspan168317" /><tspan
         sodipodi:role="line"
         style="stroke-width:0.264583"
         x="34.142193"
         y="104.33833"
         id="tspan168319">2-Avaliacao -&gt; Dar uma nota para cada um dos individuos</tspan><tspan
         sodipodi:role="line"
         style="stroke-width:0.264583"
         x="34.142193"
         y="117.56745"
         id="tspan176073">o cara mais adaptado tira a melhor nota</tspan><tspan
         sodipodi:role="line"
         style="stroke-width:0.264583"
         x="34.142193"
         y="130.79657"
         id="tspan188471">Quando for uma funcao matematica F(x)</tspan><tspan
         sodipodi:role="line"
         style="stroke-width:0.264583"
         x="34.142193"
         y="144.0257"
         id="tspan192518" /><tspan
         sodipodi:role="line"
         style="stroke-width:0.264583"
         x="34.142193"
         y="157.25482"
         id="tspan192520">3- Selecao -&gt; Nunca mata o MELHOR DE TODOS</tspan><tspan
         sodipodi:role="line"
         style="stroke-width:0.264583"
         x="34.142193"
         y="170.48395"
         id="tspan215638">                  -&gt; os ind com maior nota tenham mior probabilidade de serem  escolhidos</tspan><tspan
         sodipodi:role="line"
         style="stroke-width:0.264583"
         x="34.142193"
         y="183.71307"
         id="tspan192522" /><tspan
         sodipodi:role="line"
         style="stroke-width:0.264583"
         x="34.142193"
         y="196.9422"
         id="tspan192524">Melhor transa com todos -&gt; </tspan><tspan
         sodipodi:role="line"
         style="stroke-width:0.264583"
         x="34.142193"
         y="210.17133"
         id="tspan220116" /><tspan
         sodipodi:role="line"
         style="stroke-width:0.264583"
         x="34.142193"
         y="223.40045"
         id="tspan220118">4- Crossover:   </tspan><tspan
         sodipodi:role="line"
         style="stroke-width:0.264583"
         x="34.142193"
         y="236.62958"
         id="tspan223800">i0 = (10, 3, 5, 10)            </tspan><tspan
         sodipodi:role="line"
         style="stroke-width:0.264583"
         x="34.142193"
         y="249.8587"
         id="tspan259555">            x</tspan><tspan
         sodipodi:role="line"
         style="stroke-width:0.264583"
         x="34.142193"
         y="263.08783"
         id="tspan223802">i9 = (8, 2, 6, 88)</tspan><tspan
         sodipodi:role="line"
         style="stroke-width:0.264583"
         x="34.142193"
         y="276.31696"
         id="tspan229012" /><tspan
         sodipodi:role="line"
         style="stroke-width:0.264583"
         x="34.142193"
         y="289.54608"
         id="tspan229014">F=  (10+8/2, 3+2/2.0, ....</tspan><tspan
         sodipodi:role="line"
         style="stroke-width:0.264583"
         x="34.142193"
         y="302.77521"
         id="tspan265227"></tspan><tspan
         sodipodi:role="line"
         style="stroke-width:0.264583"
         x="34.142193"
         y="316.00433"
         id="tspan265229">5- Mutacao:</tspan><tspan
         sodipodi:role="line"
         style="stroke-width:0.264583"
         x="34.142193"
         y="329.23346"
         id="tspan273307">sorteia alguns Genes e soma ou subtrai um Taxa de Mutacao</tspan><tspan
         sodipodi:role="line"
         style="stroke-width:0.264583"
         x="34.142193"
         y="342.46255"
         id="tspan289863"></tspan><tspan
         sodipodi:role="line"
         style="stroke-width:0.264583"
         x="34.142193"
         y="355.69168"
         id="tspan289865">6- Rearranjo da Populacao</tspan><tspan
         sodipodi:role="line"
         style="stroke-width:0.264583"
         x="34.142193"
         y="368.92081"
         id="tspan289867">mata alguns individuos e substitiu pelos novos filhos produzidos</tspan><tspan
         sodipodi:role="line"
         style="stroke-width:0.264583"
         x="34.142193"
         y="382.14993"
         id="tspan293199"></tspan><tspan
         sodipodi:role="line"
         style="stroke-width:0.264583"
         x="34.142193"
         y="395.37906"
         id="tspan293201"> </tspan></text>
    <path
       style="fill:none;stroke:#000000;stroke-width:0.264583px;stroke-linecap:butt;stroke-linejoin:miter;stroke-opacity:1"
       d="m 360.58014,111.78285 c 5.00269,-4.5549 10.24181,-9.11703 14.25734,-14.649775 5.93683,-8.17995 -1.08331,1.282722 3.46157,-5.885685 0.67474,-1.064223 1.56893,-1.975501 2.27375,-3.020039 2.01067,-2.979801 0.80415,-1.788054 2.60292,-4.932793 1.79083,-3.130831 4.28312,-5.986103 6.42382,-8.89988 2.0126,-2.739448 3.68681,-5.58941 5.36172,-8.54212 2.68092,-4.72616 9.17081,-15.767098 14.78373,-17.174734 0.8623,-0.216252 1.52548,0.534675 2.27309,0.855088 6.46152,2.76922 11.29488,9.221367 15.5163,14.629096 0.83468,1.069255 1.53805,2.238563 2.39578,3.289435 0.89839,1.100706 2.066,1.956321 3.00789,3.020036 1.88322,2.126774 3.56796,4.467447 5.74561,6.334003 0.68868,0.590304 1.56615,1.115097 2.28023,1.710172 3.17463,2.645534 5.98273,6.126681 9.69097,7.980806 1.04847,0.524235 2.61544,1.060136 3.69102,1.41079 0.7429,0.242195 2.64615,-0.09631 3.33129,0.285031 1.99501,1.110395 5.03608,1.668782 7.38232,2.255343 0.83466,0.208666 1.71879,0.131124 2.56525,0.28503 3.36782,0.612333 -1.17946,-0.133395 2.28023,0.855086 0.81671,0.233349 1.44891,0.154389 2.28023,0.570058 2.02711,1.013547 3.94877,2.367367 5.88283,3.527422 1.03886,0.623117 1.70537,0.708573 2.56524,1.425144 0.91114,0.759293 1.60118,1.87662 2.56526,2.565259 0.34576,0.246965 0.8137,0.298045 1.14012,0.570057 0.72369,0.60308 2.90155,3.40787 3.43228,4.00527 2.69552,3.03415 5.73574,6.00296 9.1136,8.25487"
       id="path190600" />
    <path
       style="fill:none;stroke:#000000;stroke-width:0.264583px;stroke-linecap:butt;stroke-linejoin:miter;stroke-opacity:1"
       d="m 340.89609,105.51284 c 0.746,-0.0844 1.48829,-0.21356 2.23801,-0.25307 7.4291,-0.39155 14.99918,0 22.44405,0 11.35906,0 22.7181,0 34.07717,0 40.96779,0 81.93558,0 122.90337,0"
       id="path190602" />
    <path
       style="fill:none;stroke:#000000;stroke-width:0.264583px;stroke-linecap:butt;stroke-linejoin:miter;stroke-opacity:1"
       d="m 372.26041,20.950477 c -0.36192,11.790115 -1.28738,23.503044 -0.79428,35.334758 0.19055,4.572299 0.81267,9.116843 1.14012,13.681382 0.24265,3.382507 0.21039,6.785538 0.57004,10.157613 0.35277,3.307461 1.20722,6.548284 1.56446,9.855264 0.73467,6.800736 0.87823,13.655146 1.07989,20.492476 0.0582,1.97116 -0.0659,15.82831 0,17.29551 0.21059,4.6906 0.76542,9.36019 1.04299,14.0473 0.11901,2.00967 -0.10139,4.56383 0,6.60173 0.0756,1.51962 0.30308,3.02919 0.37751,4.54888 0.10147,2.07155 -0.49676,4.94189 1.14012,6.57874"
       id="path190604" />
    <path
       style="fill:none;stroke:#000000;stroke-width:0.264583px;stroke-linecap:butt;stroke-linejoin:miter;stroke-opacity:1"
       d="m 412.28211,101.94602 c 0.95556,0.98571 4.13914,6.10536 5.08738,6.10536"
       id="path190606" />
    <path
       style="fill:none;stroke:#000000;stroke-width:0.264583px;stroke-linecap:butt;stroke-linejoin:miter;stroke-opacity:1"
       d="m 419.92121,100.87022 c -0.51073,0.55798 -1.01291,1.12388 -1.53215,1.67395 -1.16112,1.2301 -2.38276,2.64729 -3.70536,3.70537 -0.33179,0.26543 -0.83968,0.26961 -1.14011,0.57006 -0.0672,0.0672 0,0.19002 0,0.28503 -0.0933,0.18655 -0.13169,0.41285 -0.27983,0.55965 -0.0675,0.0669 -0.21743,-0.0668 -0.28503,0 -0.0859,0.0848 -0.49763,1.70486 -0.55658,1.94068 -0.0515,0.20611 -0.48773,0.63371 -0.28504,0.57006 1.79584,-0.56394 3.48824,-1.41576 5.23238,-2.12364"
       id="path190608" />
    <path
       style="fill:none;stroke:#000000;stroke-width:0.264583px;stroke-linecap:butt;stroke-linejoin:miter;stroke-opacity:1"
       d="m 410.84481,47.809456 c -4.1061,0.441153 -8.20663,0.975379 -12.33958,1.222045 -2.00406,0.11961 -4.01778,-0.09994 -6.02293,0 -15.70569,0.782804 15.72324,0.0069 -12.97514,0.811022 -6.5229,0.182768 -13.08184,0 -19.61001,0"
       id="path190610" />
    <path
       style="fill:none;stroke:#000000;stroke-width:0.264583px;stroke-linecap:butt;stroke-linejoin:miter;stroke-opacity:1"
       d="m 553.87308,104.80811 c 3.70576,-0.566 9.80247,0.27712 13.32905,-1.83475 5.80649,-3.477174 9.2669,-14.339961 11.81838,-20.164644 1.14326,-2.577009 2.28653,-5.154019 3.42979,-7.731029 0.42294,-0.704914 0.89892,-1.380607 1.26884,-2.114735 1.57247,-3.120681 2.95923,-6.22267 5.05539,-9.063826 0.63651,-0.862748 1.4664,-1.572779 2.0896,-2.445187 0.54319,-0.760394 0.82828,-1.688618 1.39449,-2.432034 0.87439,-1.148085 1.98694,-2.096778 2.9037,-3.211359 0.61716,-0.750358 1.06965,-1.627039 1.69052,-2.374347 2.29743,-2.765348 5.40637,-5.478206 8.40248,-7.375911 1.34255,-0.85035 1.68291,-0.663583 2.92301,-0.309271 5.77483,1.649952 7.24564,10.317098 9.0029,15.158185 0.89646,2.469634 2.34979,5.357214 4.21923,7.220262 0.93546,0.932283 5.35602,4.270481 6.99273,2.628638 0.67323,-0.675367 1.11331,-1.55004 1.71603,-2.289035 1.50691,-1.847633 2.91314,-3.711643 4.34716,-5.60551 2.42689,-3.20512 5.19274,-6.33222 7.22865,-9.825421 2.13363,-3.660806 3.64702,-6.837074 6.09447,-10.428655 2.72717,-4.00204 6.4729,-6.804242 10.27745,-9.668129 0.67167,-0.505597 1.24306,-1.141341 1.93955,-1.61214 3.0053,-2.031426 7.34449,-2.825541 10.90983,-2.316208 2.17191,0.310272 2.18392,4.963496 2.28023,6.270633 0.43022,5.837711 0.20326,18.446972 6.36508,22.135242 1.16438,0.696958 4.80754,0.405951 6.03973,0.285028 1.92238,-0.188653 3.36494,-7.421314 3.67382,-8.355245 1.04793,-3.168624 2.49491,-6.35825 3.21939,-9.624224 0.37624,-1.696088 0.45257,-3.44774 0.79534,-5.150911 1.35602,-6.737913 3.27927,-13.615281 9.40091,-17.441303 2.7359,-1.709943 4.11906,1.19243 5.42033,3.142527 1.85037,2.772942 3.3609,4.852689 4.32988,8.103158 0.81691,2.740215 1.88328,5.332375 2.40726,8.181829 0.51332,2.791365 0.16143,5.48137 0.29917,8.290769 0.0722,1.47379 0.33888,2.934417 0.39722,4.408824 0.12181,3.079898 -0.15412,6.168469 0,9.246925 0.2994,5.981652 0.67429,11.882406 1.53738,17.821378 0.15047,1.035518 2.12768,10.528078 3.55524,10.528078"
       id="path309710" />
    <path
       style="fill:none;stroke:#000000;stroke-width:0.264583px;stroke-linecap:butt;stroke-linejoin:miter;stroke-opacity:1"
       d="m 607.9982,41.240373 c 0.27499,2.03716 -1.30429,-0.402235 -1.70653,0 -0.56835,0.568339 -1.32138,1.659224 -1.70659,2.558048 -0.24119,0.562771 -1.91505,6.380951 -0.57007,7.057696 0.57819,0.29092 0.61706,-0.608496 1.07064,-0.836678 0.0838,-0.04218 0.18766,0 0.28151,0 0.38002,-0.473877 0.75076,-0.955374 1.14012,-1.42163 0.72091,-0.863328 0.24294,-0.975045 0.56642,-1.941603 0.11313,-0.338018 0.46058,-0.551582 0.28503,-1.023461 -0.068,-0.182798 -0.17444,-0.348898 -0.26167,-0.523346 -0.095,-0.28503 -0.19002,-0.570058 -0.28501,-0.855088"
       id="path309712" />
    <path
       style="fill:none;stroke:#000000;stroke-width:0.264583px;stroke-linecap:butt;stroke-linejoin:miter;stroke-opacity:1"
       d="m 669.11468,25.891622 c -0.65678,0.19002 -1.32839,0.334756 -1.97035,0.570058 -1.51921,0.556863 -3.71782,1.660726 -4.56044,3.135318 -0.19436,0.340119 -0.19002,0.760076 -0.28504,1.140113 -0.73694,2.947786 0.38016,4.655444 3.70539,3.990404 0.23669,-0.04734 2.34603,-6.602759 2.0343,-7.149206 -0.77449,-1.357654 0.15634,0.441354 -0.56642,-0.281392 -0.37883,-0.378844 0.46911,-0.285028 -0.28144,-0.285028"
       id="path309714" />
    <path
       style="fill:none;stroke:#000000;stroke-width:0.264583px;stroke-linecap:butt;stroke-linejoin:miter;stroke-opacity:1"
       d="m 708.15982,9.9424666 c -2.1028,-0.3775967 -3.77949,0.5637974 -5.70055,1.1401154 -2.63033,0.789095 -5.44902,1.311768 -6.30037,4.291515 -0.0642,0.224877 -0.49596,1.615511 -0.28503,1.995201 0.98859,1.779446 3.80331,4.645577 5.95297,5.051937 2.80804,0.530825 6.06644,-0.16238 8.26582,-1.995201 2.56651,-2.138745 2.08438,-7.468598 0.53702,-9.872593 -0.2227,-0.345961 -0.77171,0.60913 -0.77171,0.771095"
       id="path309716" />
    <path
       style="fill:none;stroke:#000000;stroke-width:0.264583px;stroke-linecap:butt;stroke-linejoin:miter;stroke-opacity:1"
       d="m 730.87179,10.084233 c -5.9944,1.580053 -6.11503,7.695777 0.72509,7.695777 1.72519,0 2.61514,-1.357425 3.42035,-2.565259 0.095,-0.09501 0.19002,-0.190019 0.28503,-0.285029 0.0938,0 0.21514,0.06634 0.28149,0 0.35592,-0.355898 -0.0182,-2.687157 -0.28503,-3.13175 -1.01775,-1.696258 -2.80072,-1.358234 -4.42693,-1.713739 z"
       id="path309718" />
    <path
       style="fill:none;stroke:#000000;stroke-width:0.264583px;stroke-linecap:butt;stroke-linejoin:miter;stroke-opacity:1"
       d="m 747.35737,9.9936132 c -2.06312,-1.0088785 -2.97829,0.1418158 -4.73205,1.1963498 -0.97457,0.585998 -1.95487,1.162552 -2.92283,1.759389 -1.42279,0.87729 -1.80152,1.342735 -0.85508,2.762399 0.57008,0.855086 1.01574,1.807696 1.71019,2.565259 0.68636,0.748773 4.52692,2.438647 5.38721,1.140115 0.36928,-0.557363 1.07347,-2.04634 0.57007,-2.757172 -0.10046,-0.141843 -4.58446,0.194444 -3.44575,0.194444"
       id="path309720" />
    <path
       style="fill:none;stroke:#000000;stroke-width:0.264583px;stroke-linecap:butt;stroke-linejoin:miter;stroke-opacity:1"
       d="m 658.99617,15.03325 c -0.7601,0 -1.53242,-0.135966 -2.28024,0 -1.56998,0.285453 -2.81739,2.596798 -1.99519,3.967083 0.49784,0.829752 1.61179,1.6118 2.29266,2.292678 0.24583,0.245837 1.58224,1.422711 1.99184,1.425144 0.0869,5.29e-4 1.37647,-1.798947 1.42515,-1.991835 0.0689,-0.272936 -0.0556,-0.56853 0,-0.844475 0.13433,-0.666672 0.72173,-1.328407 0.85508,-1.995201 0.15018,-0.750933 0.12716,-1.984931 -0.28503,-2.561763 -0.0257,-0.03575 -0.59656,0.0049 -0.62423,0 -0.46297,-0.08199 -0.92004,-0.19442 -1.38004,-0.291631 z"
       id="path309722" />
    <path
       style="fill:none;stroke:#000000;stroke-width:0.264583px;stroke-linecap:butt;stroke-linejoin:miter;stroke-opacity:1"
       d="m 666.89247,15.267759 c 0,2.943232 -0.12187,0.20622 0.28504,2.647659 0.52197,3.131892 0.91024,2.528908 4.58335,2.528908 0.4328,0 2.56526,-0.539224 2.56526,-0.03938"
       id="path309724" />
    <path
       style="fill:none;stroke:#000000;stroke-width:0.264583px;stroke-linecap:butt;stroke-linejoin:miter;stroke-opacity:1"
       d="m 605.13443,28.372908 c -3.01601,0.307462 -1.95606,-0.13413 -3.366,0.570058 -0.77282,0.385966 -1.70569,0.548984 -2.31841,1.157902 -0.54462,0.541255 0.3497,1.560848 0.85511,2.138907 1.60938,1.84082 3.1074,2.2908 5.4261,2.2908 0.48683,0 1.75792,0.150222 2.28023,-0.285028 0.89289,-0.74408 2.33132,-2.971493 1.71016,-4.275434 -0.006,-0.01243 -0.78057,-0.472458 -0.83807,-0.515535 -1.6551,-1.240049 -1.4189,-1.62655 -3.74912,-1.08167 z"
       id="path309726" />
    <path
       style="fill:none;stroke:#000000;stroke-width:0.264583px;stroke-linecap:butt;stroke-linejoin:miter;stroke-opacity:1"
       d="m 614.03139,26.548098 c 0.089,0.860931 -0.80129,5.211199 -0.25408,6.061628 0.26083,0.405368 1.21592,0.985057 1.67921,1.140116 1.0973,0.36726 2.76868,0 3.93406,0"
       id="path309728" />
    <path
       style="fill:none;stroke:#000000;stroke-width:0.264583px;stroke-linecap:butt;stroke-linejoin:miter;stroke-opacity:1"
       d="M 574.86867,88.99114 582.4503,75.077687"
       id="path309730" />
    <path
       style="fill:none;stroke:#000000;stroke-width:0.264583px;stroke-linecap:butt;stroke-linejoin:miter;stroke-opacity:1"
       d="m 582.4503,75.077687 c 0.0683,-1.296612 -0.28268,-2.686439 0.20487,-3.889833 0.15954,-0.393803 0.81751,0.293539 1.14012,0.570058 1.32807,1.138365 2.22562,2.958092 3.70535,3.990401 0.30711,0.214236 0.0892,-1.075126 -0.28501,-1.086549 -1.59374,-0.04864 -3.1769,0.277281 -4.76533,0.415923"
       id="path309845" />
    <path
       style="fill:none;stroke:#000000;stroke-width:0.264583px;stroke-linecap:butt;stroke-linejoin:miter;stroke-opacity:1"
       d="m 585.15239,60.293453 c 2.45012,1.213718 3.14864,4.228092 5.34469,5.692111 0.32953,0.219699 1.14011,0.98661 1.14011,0.594823"
       id="path309847" />
    <path
       style="fill:none;stroke:#000000;stroke-width:0.264583px;stroke-linecap:butt;stroke-linejoin:miter;stroke-opacity:1"
       d="m 592.97799,53.455823 c 0.79688,1.28959 1.59129,2.639854 2.54233,3.828656 0.21037,0.262985 1.41978,1.65667 1.41978,1.191202"
       id="path309849" />
    <path
       style="fill:none;stroke:#000000;stroke-width:0.264583px;stroke-linecap:butt;stroke-linejoin:miter;stroke-opacity:1"
       d="m 720.62731,86.855712 c 0.39835,-0.01961 0.79944,-0.109511 1.19504,-0.05881 1.13662,0.145671 2.02205,1.403606 2.8503,1.995201 1.04553,0.746816 2.39361,1.225148 3.42035,1.995202 0.42995,0.322472 0.72721,0.796044 1.14012,1.140114 0.80457,0.670493 2.0633,0.784674 2.88374,1.438626 3.00546,2.395564 6.34551,4.073901 9.69098,5.985606 0.56258,0.321479 3.23683,2.245439 3.40291,2.245439"
       id="path309851" />
    <path
       style="fill:none;stroke:#000000;stroke-width:0.264583px;stroke-linecap:butt;stroke-linejoin:miter;stroke-opacity:1"
       d="m 546.28814,292.73648 c 0.75112,-1.29141 1.50225,-2.58284 2.25338,-3.87427 0.19002,-0.76007 0.21968,-1.57946 0.57007,-2.28023 1.06304,-2.12611 2.81037,-3.8399 4.06847,-5.85674 3.66019,-5.86761 6.74105,-12.11119 10.76576,-17.73507 0.17296,-0.24171 9.96191,-11.37205 10.15497,-11.60148 8.20727,-9.75301 8.6723,-10.74833 17.16339,-21.73574 10.46874,-13.54647 1.14491,-1.66031 15.07215,-17.61919 3.90266,-4.47196 7.89056,-8.88315 11.49527,-13.59858 1.62052,-2.11987 2.72405,-4.61731 4.43961,-6.66103 2.20673,-2.62882 4.89841,-4.81059 7.27151,-7.29026 1.73318,-1.81101 18.00236,-19.45569 21.02345,-20.57446 0.26233,-0.0971 -0.0154,0.67138 0.22916,0.80738 1.14673,0.63791 0.0482,0.63833 2.2434,2.28023 3.60701,2.69789 7.67635,4.79395 11.27604,7.55599 9.57357,7.34581 -2.33691,-1.07061 9.4815,7.46485 2.47526,1.78769 5.19261,3.25512 7.51501,5.23737 2.68478,2.29156 4.89575,5.08886 7.44432,7.53099 4.09453,3.92351 8.22637,7.80791 12.34554,11.70557 9.09507,8.60603 7.55189,5.94645 15.61922,15.56414 3.57844,4.26612 6.6275,8.94969 9.95744,13.41247 2.55606,3.40809 5.11212,6.81618 7.66818,10.22427 1.4795,1.73506 3.06459,3.38535 4.43846,5.20517 2.26973,3.00639 3.8286,5.98714 5.92384,8.92046 1.38663,1.94128 3.74388,3.18924 5.13051,5.13051 0.49392,0.69151 0.64619,1.58874 1.14011,2.28023 2.6366,3.69125 5.83748,7.22217 8.57229,10.8686 1.76107,2.3481 3.60286,6.02727 5.70058,7.83167 0.4322,0.37177 1.28818,0.75155 1.58213,1.04553 1.39912,1.39912 2.56117,7.96652 4.51184,7.96652"
       id="path309853" />
    <path
       style="fill:none;stroke:#000000;stroke-width:0.264583px;stroke-linecap:butt;stroke-linejoin:miter;stroke-opacity:1"
       d="m 516.0125,296.09351 c 6.95156,0.27123 13.82268,-1.17435 20.75077,-1.46939 9.8479,-0.41939 19.75239,0.33782 29.60317,0 4.00727,-0.13742 8,-0.55539 12.00002,-0.83309 6.04462,0 12.09125,0.15475 18.13391,0 8.72183,-0.22334 17.43299,-0.756 26.14951,-1.13401 9.88099,-0.38004 19.75749,-0.90469 29.64299,-1.14011 6.0742,-0.14468 12.15636,0.2345 18.22775,0 37.51395,-1.44905 33.81952,-2.64287 67.15231,-3.29282 9.11799,-0.1778 18.24172,0.20365 27.35916,0 16.42425,-0.36685 32.8087,-1.8836 49.23224,-2.28023 12.70489,-0.30684 25.41717,0 38.12574,0 2.8121,0 6.85072,0.41719 9.82848,0 2.21001,-0.30965 4.00931,-0.57005 6.26348,-0.57005"
       id="path309855" />
    <path
       style="fill:none;stroke:#000000;stroke-width:0.264583px;stroke-linecap:butt;stroke-linejoin:miter;stroke-opacity:1"
       d="m 537.05529,137.12835 c 5.06884,29.87772 11.54502,59.73059 12.79181,90.13388 0.38809,9.46345 0.40079,19.38335 0,28.83725 -0.041,0.96804 -0.48233,1.88535 -0.57004,2.85029 -0.21119,2.3231 0.13073,4.66904 0,6.99807 -0.74298,13.23591 -0.67599,4.46429 -0.67599,10.98984 0,7.54046 -0.5951,14.92297 -0.5951,22.43846 0,2.13321 -0.0329,14.28436 -1.13316,15.38457"
       id="path309857" />
    <path
       style="fill:none;stroke:#000000;stroke-width:0.264583px;stroke-linecap:butt;stroke-linejoin:miter;stroke-opacity:1"
       d="m 645.99621,309.34541 c 0.50387,3.22511 1.66357,6.40056 2.02512,9.65448 0.49138,4.42241 0.30411,5.66375 5.01226,5.66375"
       id="path309859" />
    <path
       style="fill:none;stroke:#000000;stroke-width:0.264583px;stroke-linecap:butt;stroke-linejoin:miter;stroke-opacity:1"
       d="m 667.42113,308.14809 c -12.06156,3.88215 0.12415,16.46787 2.9282,13.68139 1.011,-1.00465 1.81554,-4.89405 1.13297,-6.2424 -0.16811,-0.3321 -0.74446,0 -1.1167,0"
       id="path309861" />
    <path
       style="fill:none;stroke:#000000;stroke-width:0.264583px;stroke-linecap:butt;stroke-linejoin:miter;stroke-opacity:1"
       d="m 690.70822,312.07397 c -1.07132,0.16616 -2.17061,0.20387 -3.21394,0.49848 -1.53885,0.43455 -2.65721,5.13977 -2.28023,6.27065 2.09505,6.28518 10.02029,7.20021 15.58557,5.7749 4.60004,-1.17811 8.21981,-9.98265 5.31886,-11.91662 -2.08608,-1.39073 -5.09399,-1.32239 -7.4418,-1.71016"
       id="path309863" />
    <path
       style="fill:none;stroke:#000000;stroke-width:0.264583px;stroke-linecap:butt;stroke-linejoin:miter;stroke-opacity:1"
       d="m 719.21882,309.75276 c -14.13248,4.62854 -2.13214,18.0843 8.97642,15.12945 6.3582,-1.69124 6.29803,-11.60208 0.84931,-11.60208"
       id="path309865" />
    <path
       style="fill:none;stroke:#000000;stroke-width:0.264583px;stroke-linecap:butt;stroke-linejoin:miter;stroke-opacity:1"
       d="m 667.85098,290.50519 c 0.13139,-3.20196 1.33485,-6.31078 1.47076,-9.51835 0.14158,-3.3413 -0.10327,-6.69021 0,-10.0329 0.45098,-14.59945 1.69222,-24.54945 0.9089,-39.2099 -0.93472,-17.49484 -1.75599,-16.69515 -3.74952,-30.10792 -1.19041,-8.0093 -1.73167,-16.12408 -2.75815,-24.15363 -0.18952,-1.48245 -2.74568,-23.96646 -7.20463,-23.96646"
       id="path309867" />
    <path
       style="fill:none;stroke:#000000;stroke-width:0.264583px;stroke-linecap:butt;stroke-linejoin:miter;stroke-opacity:1"
       d="m 656.51834,153.51603 c -0.72522,1.36571 -0.82362,3.34679 -2.17569,4.09713 -2.22174,1.23298 -5.00907,0.85714 -7.51449,1.28053 -1.52416,0.25758 -3.03778,0.59258 -4.57422,0.76237 -11.01429,1.21724 -21.91665,1.62838 -32.98923,1.62838 -19.03679,0 -38.07362,0 -57.11044,0 -4.5638,0 -9.1276,0 -13.6914,0 -5.71558,0 -9.92131,0 -8.74776,0"
       id="path309869" />
    <path
       style="fill:none;stroke:#000000;stroke-width:0.264583px;stroke-linecap:butt;stroke-linejoin:miter;stroke-opacity:1"
       d="m 468.23378,157.59589 c 0.26154,3.93217 -2.47184,7.29028 -2.85028,11.07452 -0.22021,2.20207 0.36809,4.6389 0,6.83349 -0.48111,2.86841 -1.15051,5.66293 -1.15051,8.59891"
       id="path309871" />
    <path
       style="fill:none;stroke:#000000;stroke-width:0.264583px;stroke-linecap:butt;stroke-linejoin:miter;stroke-opacity:1"
       d="m 483.73098,165.00433 c -2.75275,0.18846 -7.17521,2.59013 -7.96031,5.73057 -0.33057,1.32221 0,3.20321 0,4.56046 0,1.59995 -0.18436,3.05166 0.57005,4.56047 0.97544,1.95086 4.06887,3.64886 5.77921,4.59655 0.83675,0.46365 2.7408,1.76493 3.9904,1.14012 0.91527,-0.45763 0.85899,-1.86638 1.14011,-2.85029 2.14588,-7.51057 -1.21055,-14.14151 -4.92466,-20.56754 -0.1506,-0.26055 -2.04261,-3.04008 -2.96272,-3.53276 -3.28483,-1.7589 -7.42106,-0.68129 -11.12928,-1.04602"
       id="path309873" />
    <path
       style="fill:none;stroke:#000000;stroke-width:0.264583px;stroke-linecap:butt;stroke-linejoin:miter;stroke-opacity:1"
       d="m 498.03004,169.46003 c -10.65302,-2.00139 -14.81881,25.04137 -5.60638,26.88385 8.76715,1.75343 11.06596,-12.97601 2.84313,-17.08743"
       id="path309875" />
    <path
       style="fill:none;stroke:#000000;stroke-width:0.264583px;stroke-linecap:butt;stroke-linejoin:miter;stroke-opacity:1"
       d="m 514.5406,175.49371 c -0.9258,0.19002 -1.93482,0.14193 -2.77738,0.57005 -0.96219,0.4889 -2.89976,3.29626 -3.42035,3.99041 -4.32372,5.76493 -7.47901,18.87918 1.18001,22.8348 2.05859,0.94041 6.32137,1.90776 8.55086,0.57005 2.04356,-1.22612 6.96656,-13.18029 6.49655,-16.00026 -0.41952,-2.51717 -1.80337,-3.03668 -2.85027,-5.13052"
       id="path309877" />
    <text
       xml:space="preserve"
       style="font-style:normal;font-weight:normal;font-size:10.5833px;line-height:1.25;font-family:sans-serif;fill:#000000;fill-opacity:1;stroke:none;stroke-width:0.264583"
       x="539.16498"
       y="376.90326"
       id="text312345"><tspan
         sodipodi:role="line"
         id="tspan312343"
         style="stroke-width:0.264583"
         x="539.16498"
         y="376.90326">//float y = x; </tspan><tspan
         sodipodi:role="line"
         style="stroke-width:0.264583"
         x="539.16498"
         y="390.13239"
         id="tspan312347">		//if(x&gt;500)</tspan><tspan
         sodipodi:role="line"
         style="stroke-width:0.264583"
         x="539.16498"
         y="403.36151"
         id="tspan312349">		//	y=1000-x;</tspan><tspan
         sodipodi:role="line"
         style="stroke-width:0.264583"
         x="539.16498"
         y="416.59064"
         id="tspan312351" /></text>
    <text
       xml:space="preserve"
       style="font-style:normal;font-weight:normal;font-size:10.5833px;line-height:1.25;font-family:sans-serif;fill:#000000;fill-opacity:1;stroke:none;stroke-width:0.264583"
       x="-1.3983665"
       y="103.65196"
       id="text322875"><tspan
         sodipodi:role="line"
         id="tspan322873"
         style="stroke-width:0.264583"
         x="-1.3983665"
         y="103.65196">Loop:</tspan></text>
    <path
       style="fill:none;stroke:#000000;stroke-width:0.264583px;stroke-linecap:butt;stroke-linejoin:miter;stroke-opacity:1"
       d="m 443.78024,439.35934 c 2.38104,67.34495 14.59185,138.25534 14.59185,203.62264"
       id="path343628" />
    <path
       style="fill:none;stroke:#000000;stroke-width:0.264583px;stroke-linecap:butt;stroke-linejoin:miter;stroke-opacity:1"
       d="m 353.9352,615.53305 c 3.7519,0.44339 7.28631,1.93185 11.00217,2.52291 15.35459,2.44226 36.28861,1.85644 50.37027,2.64242 10.0925,0.56332 20.13288,1.95963 30.23367,2.34706 11.96684,0.459 23.95127,0 35.92692,0 23.74048,0 47.83545,1.09138 71.54791,0 19.7658,-0.90972 39.46091,-3.00844 59.21359,-4.16875 4.81465,-0.28281 36.18778,-1.90161 43.57457,-2.63244 7.3927,-0.73142 14.72084,-2.03737 22.1129,-2.77498 17.93145,-1.78927 36.90808,-1.87764 54.89988,-4.55591 4.05296,-0.6033 8.12276,-0.96081 12.12302,-1.62751 1.92974,-0.32162 3.70202,-1.36972 5.64327,-1.61237 2.13323,-0.26664 4.34139,0.42162 6.44948,0 1.48829,-0.29765 1.52821,-0.80618 2.91262,-0.80618"
       id="path343630" />
    <text
       xml:space="preserve"
       style="font-style:normal;font-weight:normal;font-size:10.5833px;line-height:1.25;font-family:sans-serif;fill:#000000;fill-opacity:1;stroke:none;stroke-width:0.264583"
       x="754.64508"
       y="632.57532"
       id="text345240"><tspan
         sodipodi:role="line"
         id="tspan345238"
         style="stroke-width:0.264583"
         x="754.64508"
         y="632.57532">Geracoes</tspan></text>
    <text
       xml:space="preserve"
       style="font-style:normal;font-weight:normal;font-size:10.5833px;line-height:1.25;font-family:sans-serif;fill:#000000;fill-opacity:1;stroke:none;stroke-width:0.264583"
       x="403.26385"
       y="442.44562"
       id="text351382"><tspan
         sodipodi:role="line"
         id="tspan351380"
         style="stroke-width:0.264583"
         x="403.26385"
         y="442.44562">Fitnes do Melhor</tspan><tspan
         sodipodi:role="line"
         style="stroke-width:0.264583"
         x="403.26385"
         y="455.67474"
         id="tspan351384">Media do fitnaess da pop</tspan></text>
    <path
       style="fill:none;stroke:#000000;stroke-width:0.264583px;stroke-linecap:butt;stroke-linejoin:miter;stroke-opacity:1"
       d="m 456.57496,603.66032 c 0.98462,-0.90953 2.55783,-1.71609 3.34968,-2.90383 1.59729,-2.39596 3.05072,-4.2205 4.20502,-6.46245 0.17397,-0.33787 0.63625,-0.46627 0.80619,-0.80618 0.26572,-0.53142 -0.26218,-0.27292 0,-0.80084 0.35147,-0.70768 1.24425,-1.28995 1.607,-2.01544 0.31467,-0.62936 0.64929,-1.85502 1.20928,-2.41856 0.0935,-0.0941 0.30421,0.0938 0.39803,0 0.39172,-0.39171 2.0968,-3.00548 2.38303,-3.57706 0.64577,-1.28952 1.42356,-3.76999 2.4135,-4.82697 0.12523,-0.1337 0.57296,-0.16992 0.68673,-0.31414 0.42103,-0.53372 0.42568,-1.84018 0.8011,-2.40329 0.40386,-0.60582 2.63239,-3.47303 2.81178,-4.01122 0.085,-0.25493 -0.12017,-0.56581 0,-0.80619 0.54576,-1.09151 1.85714,-2.10192 2.41856,-3.22471 0.12017,-0.24037 -0.14907,-0.58261 0,-0.80619 0.16666,-0.25 0.59372,-0.19065 0.80618,-0.40309 1.23725,-1.23724 -0.23553,-0.33517 0.4031,-1.61237 0.57832,-1.15668 2.0398,-2.85816 2.82162,-4.03093 0.36803,-0.55202 1.40737,-1.40546 1.60732,-2.01035 0.0843,-0.25517 -0.1202,-0.56584 0,-0.80619 0.33734,-0.67469 1.25827,-1.30731 1.61234,-2.01546 1.15364,-2.30725 -0.25043,-0.2544 0.80619,-2.01547 2.32947,-3.88244 -1.26482,2.33508 2.41855,-2.82164 0.70879,-0.9923 1.10839,-2.72077 2.01547,-3.62781 0.86952,-0.86956 2.66874,-2.53331 3.21233,-3.5832 0.17663,-0.34116 0.23841,-0.8526 0.40309,-1.2042 0.38515,-0.82235 1.33384,-1.01724 1.58213,-2.01044 0.29797,-1.19192 -0.45331,-0.47048 0.40309,-1.61237 2.57278,-3.43037 4.95197,-7.09329 7.65392,-10.47075 0.55081,-0.6885 1.53744,-1.13641 2.00528,-1.60724 1.07656,-1.08341 1.86158,-2.71737 3.21969,-3.62278 2.25517,-1.50347 4.62084,-3.41159 6.44945,-5.24018 0.21244,-0.21246 0.19064,-0.59375 0.4031,-0.80618 0.61841,-0.61844 1.783,-0.97682 2.41855,-1.61237 1.15491,-1.15494 2.06619,-3.2452 3.62781,-4.0309 0.69458,-0.34949 2.28529,-1.48413 2.8116,-2.01044 0.91979,-0.9198 1.54895,-2.58432 2.82162,-3.22472 0.70622,-0.35536 0.13359,0.59899 0.80108,-0.39798 2.54188,-3.79669 6.11108,-6.51418 9.2711,-9.6742 0.96777,-0.96777 1.70019,-2.29018 2.82162,-3.22472 1.7974,-1.4978 4.20759,-4.0092 6.0464,-5.2402 0.94927,-0.6355 2.47909,-1.68299 3.2096,-2.4135 0.30308,-0.30311 0.74851,-1.14658 1.18687,-1.58494"
       id="path356479" />
    <path
       style="fill:none;stroke:#000000;stroke-width:0.264583px;stroke-linecap:butt;stroke-linejoin:miter;stroke-opacity:1"
       d="m 552.50396,485.36863 c 6.06499,-1.76953 10.86485,-4.79716 16.07172,-8.12739 4.87111,-3.11552 -0.36695,-0.53985 4.78896,-3.46445 1.19787,-0.67948 2.49846,-1.16639 3.69533,-1.84767 0.91387,-0.52019 1.68645,-1.27526 2.62482,-1.74987 0.76785,-0.38836 1.64018,-0.52253 2.44896,-0.81632 5.12638,-1.86217 9.941,-3.58767 15.22672,-4.93022 3.73499,-0.94869 7.36197,-2.47176 11.10104,-3.40654 2.27446,-0.56861 4.67291,-0.61261 6.94182,-1.23139 4.04767,-1.10393 8.02124,-2.60996 12.09275,-3.62784 2.89227,-0.72305 6.08936,-0.73332 8.93305,-1.61237 1.04759,-0.32382 1.98128,-0.95417 3.02218,-1.29884 2.94243,-0.97433 3.90432,-0.90596 6.81675,-1.3862 4.09189,-0.67474 8.124,-1.50736 12.20041,-2.22444 1.22799,-0.216 2.47552,-0.30046 3.7133,-0.45071 1.44028,-0.16055 2.89327,-0.23239 4.32088,-0.48168 9.21187,-1.60853 18.49906,-4.15078 27.88351,-4.72112 4.85558,-0.29509 9.74119,-0.1039 14.60312,-0.4241 3.90562,-0.2572 7.79389,-0.67191 11.70562,-0.90405 1.19539,-0.071 2.40345,0.14203 3.59249,0 1.42642,-0.17039 2.78294,-0.74861 4.20777,-0.93168 1.00616,-0.1293 2.03089,0.0641 3.04329,0 5.39528,-0.3416 10.76439,-0.59947 16.16591,-0.95554 7.27051,-0.47927 14.73271,0 22.02651,0 3.49017,0 6.98034,0 10.47054,0 1.31511,0 3.07536,-0.3106 4.31779,0 1.14837,0.2871 1.89008,0.40309 3.11327,0.40309"
       id="path356483" />
    <path
       style="fill:none;stroke:#000000;stroke-width:0.264583px;stroke-linecap:butt;stroke-linejoin:miter;stroke-opacity:1"
       d="m 648.35912,37.326136 c 0.52261,0.610743 1.02582,1.238625 1.56782,1.832229 0.12059,0.132064 1.25642,1.709581 2.01046,1.209272 0.92437,-0.613312 -3.64032,-1.725818 -3.57828,-3.041501 0.29697,-6.297359 5.06397,0.356973 5.39978,0.692777"
       id="path356485" />
    <path
       style="fill:none;stroke:#000000;stroke-width:0.264583px;stroke-linecap:butt;stroke-linejoin:miter;stroke-opacity:1"
       d="m 457.67023,615.36088 c 0.90175,-0.37539 2.2034,-0.78681 2.9436,-1.52815 0.81055,-0.81185 3.60312,-5.07802 3.60312,-6.42234 0,-0.0948 0,0.18958 0,0.28438 0,0.85868 -0.0655,1.47457 0.40309,2.29467 0.75867,1.32768 2.39951,2.65774 3.20569,3.51365 0.56253,0.59721 2.53077,-3.51825 2.93661,-4.33084 0.91223,-1.82657 5.82917,-11.76469 7.23633,-12.7703 0.28176,-0.20134 0.84926,1.58713 1.57853,2.75397 0.98391,1.57425 4.172,4.76435 6.43443,3.62784 1.65071,-0.82921 3.1029,-2.90476 4.1792,-4.22013 1.16507,-1.42389 4.15226,-4.64421 5.19941,-6.94585 0.54739,-1.20319 0.80536,-2.52875 1.3926,-3.713 0.46763,-0.94292 1.24468,-1.70476 1.75152,-2.62723 0.41206,-0.75002 0.25305,-1.79004 0.81677,-2.43388 0.36338,-0.41502 1.10823,2.23123 1.1117,2.23816 0.20939,0.41881 5.2134,9.71357 6.47925,8.12539 1.17948,-1.47985 2.56669,-5.08905 3.12941,-6.32394 2.61112,-5.73011 4.73125,-11.57163 7.18651,-17.34918 1.14776,-2.70089 1.82096,-6.68893 3.9488,-8.87135 0.32845,-0.33687 0.5475,0.76774 0.77594,1.17904 1.61441,2.90639 3.49906,5.16355 5.58305,7.70771 1.85947,2.27002 2.8412,4.24815 4.88664,-0.0368 1.30091,-2.72526 2.13966,-5.64812 3.17453,-8.48511 1.86428,-5.11069 3.86728,-10.17532 5.52357,-15.35716 0.93758,-2.93322 1.45497,-7.3116 3.24313,-9.70626 0.39151,-0.52428 0.75155,2.27031 1.10342,3.1139 0.51414,1.23262 5.46497,9.29079 6.06602,9.31013 1.4654,0.0472 0.91916,-2.79005 1.23092,-4.22267 0.51099,-2.34825 0.90996,-4.72254 1.50818,-7.05011 0.1461,-2.13887 1.52503,-3.85244 2.09323,-5.84115 0.0738,-0.2584 0,-0.53745 0,-0.80619 0.13438,-0.26874 0.29151,-0.52723 0.40309,-0.80618 0.15782,-0.3945 0.15613,-0.86352 0.40309,-1.20928 1.64452,-2.3023 2.20215,-2.60326 3.11126,-0.48194 0.76965,1.79581 1.53451,2.78138 2.83271,4.45241 0.37195,0.47876 1.62129,1.47275 2.40837,0.80618 2.86605,-2.42726 7.21122,-11.04326 7.68128,-11.04326"
       id="path356489" />
    <path
       style="fill:none;stroke:#000000;stroke-width:0.264583px;stroke-linecap:butt;stroke-linejoin:miter;stroke-opacity:1"
       d="m 573.23523,522.18601 c 4.19536,0.32441 2.65512,1.0523 5.50757,-3.09573 0.30818,-0.44812 2.53925,-3.36436 2.53925,-3.8767 0,-0.22455 -0.11123,0.47855 0,0.6736 0.29763,0.52184 1.79928,1.82949 2.01041,2.01039 2.23129,1.91161 4.49874,2.87803 7.29631,1.22459 4.19775,-2.48097 7.79201,-6.15246 11.62116,-9.12685 0.84442,-0.65593 1.84079,-1.10305 2.66902,-1.77932 2.84305,-2.32141 5.60723,-5.46802 9.19945,-6.72177 0.11647,-0.0406 -0.0552,0.25974 0,0.37007 0.2898,0.57962 0.50771,0.87146 0.77317,1.57935 0.57832,1.54221 1.16572,3.98738 2.41855,5.24018 0.28271,0.28274 0.79965,0 1.19949,0 0.26871,0 0.58762,0.15634 0.80619,0 4.28508,-3.06475 9.39625,-9.83176 12.94048,-13.86763 0.99586,-1.13398 1.88624,-2.36424 2.95137,-3.43345 0.59187,-0.59412 5.4447,-3.33406 6.22319,-3.34536 0.21632,-0.003 0.82616,1.85523 1.19192,2.76963 0.92363,2.30907 1.74701,4.49413 3.26932,6.52388 0.40309,0.4031 0.80619,0.80619 1.20928,1.20928 0.13436,0 0.30808,-0.095 0.40309,0 0.0975,0.0975 -0.23066,0.8359 0.39807,0.40307 1.23192,-0.84802 1.9704,-2.25105 2.92184,-3.40498 1.68402,-2.04242 3.5001,-3.98444 5.03614,-6.14034 0.85156,-1.19523 1.36072,-2.60167 2.09685,-3.87128 1.70576,-2.9419 3.75187,-5.57802 6.15693,-7.98679 1.14665,-1.14842 3.55002,13.32809 7.77848,10.40262 7.94507,-5.4968 14.14087,-13.30724 23.50239,-16.47748 0.34181,-0.11573 1.29775,1.54096 1.57686,1.8759 2.37524,2.85027 3.8699,6.09941 8.08471,3.61256 4.85098,-2.86218 10.47346,-12.23742 14.29917,-13.19683 3.42347,-0.85852 1.52887,7.1029 6.75635,6.44946 0.54972,-0.0687 1.15586,-0.0892 1.61237,-0.4031 6.32793,-4.35043 11.07678,-10.77555 16.72545,-15.77239 1.92638,-1.70408 4.14287,-3.07208 6.38559,-4.3311 1.18983,-0.66794 5.27071,-2.32277 6.06602,-1.52754 0.88008,0.87995 0.0838,0.65439 0.40304,1.612 0.79497,2.38477 2.67544,6.44945 5.64327,6.44945 2.4743,0 9.77067,-3.40987 12.09275,-2.01546 2.95289,1.77326 1.81618,4.45797 6.43938,3.62281 3.81794,-0.68972 7.51404,-2.03041 11.36221,-2.52423 1.84918,-0.23731 3.7287,0 5.59306,0 1.26378,0 4.28233,-0.55478 5.24018,0.40309"
       id="path356491" />
    <path
       style="fill:none;stroke:#000000;stroke-width:0.264583px;stroke-linecap:butt;stroke-linejoin:miter;stroke-opacity:1"
       d="m 619.30554,465.64863 c 1.51979,2.32468 2.64834,5.12982 3.18124,7.79433 0.16666,0.83325 -0.27101,2.00864 0,2.82165 0.8055,2.41649 0.80619,5.75958 0.80619,8.45484 0,2.00104 -0.27186,5.47635 0.66034,6.80244"
       id="path356493" />
    <path
       style="fill:none;stroke:#000000;stroke-width:0.264583px;stroke-linecap:butt;stroke-linejoin:miter;stroke-opacity:1"
       d="m 632.72465,466.31083 c -0.24419,2.61347 0.79327,5.03174 1.20928,7.52782 0.11043,0.66267 -0.21244,1.37811 0,2.01546 0.0601,0.18026 0.36583,0.21675 0.40309,0.40309 0.19828,0.99134 -0.0681,2.68539 0.40309,3.62781 0.0601,0.1202 0.3075,-0.0944 0.40309,0 0.19871,0.19627 0.4031,2.90367 0.4031,3.09232"
       id="path356495" />
    <path
       style="fill:none;stroke:#000000;stroke-width:0.264583px;stroke-linecap:butt;stroke-linejoin:miter;stroke-opacity:1"
       d="m 625.78426,471.41453 c 0.56369,-0.26323 1.10913,-0.56975 1.69105,-0.78972 0.36452,-0.1378 0.78722,0.0777 1.16909,0 2.64316,-0.53803 -0.3924,-0.29099 2.82165,-1.20928 4.83875,-1.3825 -2.55106,1.58475 2.41856,-0.40309 1.4533,-0.58132 3.93872,-1.98472 5.24018,-2.41856 0.44804,-0.14933 3.87889,-0.25794 3.87889,-0.75065"
       id="path356497" />
    <path
       style="fill:none;stroke:#000000;stroke-width:0.264583px;stroke-linecap:butt;stroke-linejoin:miter;stroke-opacity:1"
       d="m 651.16031,478.64795 c 0.25969,-4.39952 2.22359,-8.50492 2.83951,-12.81628 0.11401,-0.79809 -0.089,-1.61729 0,-2.41856 0.13708,-1.23375 1.03621,-3.67247 1.08662,-3.60952 0.24095,0.30085 -0.0756,0.77837 0,1.15636 0.13607,0.68035 1.62647,4.05913 2.01546,4.83708 0.57378,1.14758 2.4135,2.7382 2.4135,4.02588 0,0.3547 0.22929,-0.67347 0.38659,-0.9914 0.52869,-1.06841 1.07838,-2.15675 1.61237,-3.22471 0.32358,-0.6472 0.53744,-1.34366 0.80618,-2.01547 0.56221,-0.70897 1.22481,-1.34884 1.68667,-2.12693 0.98935,-1.66677 1.36657,-3.72761 2.46216,-5.37101 0.21082,-0.31623 0.63624,-0.46628 0.80618,-0.80619 0.1202,-0.24037 -0.11618,-0.56388 0,-0.80618 0.19058,-0.39746 1.95654,2.89933 1.97993,2.93674 1.50448,2.40715 2.9667,4.9729 4.67133,7.25482 0.10226,0.13692 3.22791,3.61098 3.22791,3.63101 0,0.0421 0,-0.56859 0,-0.61071 0,-1.11712 0.4031,-1.73699 0.4031,-2.80257"
       id="path356499" />
    <path
       style="fill:none;stroke:#000000;stroke-width:0.264583px;stroke-linecap:butt;stroke-linejoin:miter;stroke-opacity:1"
       d="m 468.74196,615.2201 c 0.78684,0.46574 1.51495,1.04934 2.36056,1.39724 0.6336,0.26066 1.36549,0.18642 2.01546,0.40309 1.77165,0.59055 3.34608,2.14797 5.24018,2.41853 6.78606,0.96946 16.52212,-5.52408 21.73563,-9.3417 5.20488,-3.81129 11.52297,-8.20928 15.60218,-13.11391 0.39553,-0.47556 1.43645,0.43423 1.60396,0.68733 0.7742,1.16983 -0.0298,0.87114 1.61235,2.01544 0.92458,0.64429 7.79671,5.15033 9.40326,4.11022 4.10297,-2.65628 8.45857,-6.52319 12.10842,-9.88398 2.38834,-2.19917 4.20346,-5.0877 6.89504,-6.92161 0.32708,-0.22283 6.75569,9.30413 9.22099,8.31059 6.4769,-2.61025 10.87949,-11.25381 16.85618,-15.56536 1.19857,-0.86463 2.57011,-1.46031 3.86948,-2.16445 2.78943,-1.51159 3.67258,0.35163 5.54908,2.76699 0.80103,1.03103 2.46386,2.57524 4.03093,2.41853 3.43823,-0.3438 12.46291,-8.70038 15.22693,-11.2077 0.42431,-0.38489 0.70085,-0.96099 1.21325,-1.21719 0.94541,-0.4727 1.65965,1.51524 1.9604,1.99644 1.85991,2.97588 6.39461,7.894 10.60019,5.64883 5.98064,-3.19281 11.02688,-7.56859 15.93027,-12.22193 2.56474,-2.43398 6.67872,-8.35527 10.80608,-10.34703 2.22589,-1.07416 3.43363,4.53983 3.65546,4.95046 1.2795,2.36874 4.19449,3.2535 6.47248,1.59705 2.14696,-1.5612 3.898,-3.60984 5.95688,-5.2855 2.12434,-1.72892 4.42838,-3.22659 6.58172,-4.91929 2.39001,-1.8787 4.71924,-4.54361 7.73017,-5.54879 0.2549,-0.0851 0.56277,-0.11385 0.80619,0 0.21664,0.10133 1.37861,9.86163 3.65061,8.49384 5.04495,-3.0371 12.95771,-13.03084 18.40804,-14.12089 1.55718,-0.31144 1.32586,1.1802 1.59036,2.35249 1.09636,4.85923 3.23808,9.73468 8.85423,7.88418 9.50997,-3.13351 17.95486,-12.53262 27.35096,-13.87491 0.66505,-0.095 1.47799,-0.40309 2.01546,0 2.686,2.01452 2.66756,10.8022 9.33209,9.00282 8.17068,-2.20604 13.15665,-8.57358 20.4383,-10.71157 2.0955,-0.61527 2.24105,3.84728 3.21969,4.83205 1.33678,1.34523 10.03879,-5.36736 11.84796,-6.07599 0.37534,-0.14701 0.80618,0 1.20928,0 3.55219,0 3.50157,3.22474 5.63832,3.22474"
       id="path356501" />
  </g>
</svg>
